{
	"info": {
		"_postman_id": "b8edd49d-0a9e-4389-a2e0-946432bdc273",
		"name": "spring_blog",
		"schema": "https://schema.getpostman.com/json/collection/v2.1.0/collection.json",
		"_exporter_id": "11699872"
	},
	"item": [
		{
			"name": "posts",
			"item": [
				{
					"name": "create post",
					"request": {
						"method": "POST",
						"header": [
							{
								"key": "Authorization",
								"value": "eyJhbGciOiJIUzUxMiJ9.eyJzdWIiOiJkdW1teSIsImV4cCI6MTYxNDA4ODk3MCwidXNlciI6MjEsImlhdCI6MTYxNDA3MDk3MH0.VYIQDA_zEW7k3eQd1vHWhYVjQ_zi0c0UWJpkadj5z2S5r79KrdkHovv2V0DGdCSUsFFB2up4RpC_Wsh0qdJO6Q",
								"type": "text"
							}
						],
						"body": {
							"mode": "raw",
							"raw": "{\n    \"title\": \"dummy's first\",\n    \"content\": \"hi there! this is dummy's first post.\"\n}",
							"options": {
								"raw": {
									"language": "json"
								}
							}
						},
						"url": {
							"raw": "http://localhost:8080/posts",
							"protocol": "http",
							"host": [
								"localhost"
							],
							"port": "8080",
							"path": [
								"posts"
							]
						}
					},
					"response": []
				},
				{
					"name": "update post",
					"request": {
						"method": "PUT",
						"header": [
							{
								"key": "Authorization",
								"value": "eyJhbGciOiJIUzUxMiJ9.eyJzdWIiOiJkdW1teSIsImV4cCI6MTYxNDA4NzU2MiwidXNlciI6MjEsImlhdCI6MTYxNDA2OTU2Mn0.yss49C8mfRu951wY40VW_43--FLkgKq0eX-OXB3RZU2-9LzFAW_Etd9IIWYIEzThmCKA1b8cZjb9P9J2apwPng",
								"type": "text"
							}
						],
						"body": {
							"mode": "raw",
							"raw": "{\n    \"title\": \"Edit of dummy's first\",\n    \"content\": \"hi to you! this is my edit of dummy's first post.\"\n}",
							"options": {
								"raw": {
									"language": "json"
								}
							}
						},
						"url": {
							"raw": "http://localhost:8080/posts/22",
							"protocol": "http",
							"host": [
								"localhost"
							],
							"port": "8080",
							"path": [
								"posts",
								"22"
							]
						}
					},
					"response": []
				},
				{
					"name": "delete post",
					"request": {
						"method": "DELETE",
						"header": [
							{
								"key": "Authorization",
								"value": "eyJhbGciOiJIUzUxMiJ9.eyJzdWIiOiJkdW1teSIsImV4cCI6MTYxNDA4Nzk1NSwidXNlciI6MjEsImlhdCI6MTYxNDA2OTk1NX0.ZRgFGDJAAN5TGLeMzG6s94fdNAOrL579pUKbdVyREWOj1sKv76hESnU4NDqCo_HkMpGKsqarc5Ij87nGRTEJqA",
								"type": "text"
							}
						],
						"url": {
							"raw": "http://localhost:8080/posts/12",
							"protocol": "http",
							"host": [
								"localhost"
							],
							"port": "8080",
							"path": [
								"posts",
								"12"
							]
						}
					},
					"response": []
				},
				{
					"name": "get all posts",
					"request": {
						"method": "GET",
						"header": [],
						"url": {
							"raw": "http://localhost:8080/posts",
							"protocol": "http",
							"host": [
								"localhost"
							],
							"port": "8080",
							"path": [
								"posts"
							]
						}
					},
					"response": []
				}
			]
		},
		{
			"name": "users",
			"item": [
				{
					"name": "get users",
					"request": {
						"method": "GET",
						"header": [],
						"url": {
							"raw": "http://localhost:8080/users",
							"protocol": "http",
							"host": [
								"localhost"
							],
							"port": "8080",
							"path": [
								"users"
							]
						}
					},
					"response": []
				},
				{
					"name": "update user",
					"request": {
						"method": "PUT",
						"header": [],
						"body": {
							"mode": "raw",
							"raw": "{\n    \"username\": \"john_smith\",\n    \"password\": \"john_smith1234\"\n}",
							"options": {
								"raw": {
									"language": "json"
								}
							}
						},
						"url": {
							"raw": "http://localhost:8080/users/3",
							"protocol": "http",
							"host": [
								"localhost"
							],
							"port": "8080",
							"path": [
								"users",
								"3"
							]
						}
					},
					"response": []
				},
				{
					"name": "delete user",
					"request": {
						"method": "DELETE",
						"header": [],
						"url": {
							"raw": "http://localhost:8080/users/3",
							"protocol": "http",
							"host": [
								"localhost"
							],
							"port": "8080",
							"path": [
								"users",
								"3"
							]
						}
					},
					"response": []
				},
				{
					"name": "register user",
					"request": {
						"method": "POST",
						"header": [],
						"body": {
							"mode": "raw",
							"raw": "{\n    \"username\": \"dummy\",\n    \"password\": \"123\"\n}",
							"options": {
								"raw": {
									"language": "json"
								}
							}
						},
						"url": {
							"raw": "http://localhost:8080/users/register",
							"protocol": "http",
							"host": [
								"localhost"
							],
							"port": "8080",
							"path": [
								"users",
								"register"
							]
						}
					},
					"response": []
				},
				{
					"name": "authenticate user",
					"request": {
						"method": "POST",
						"header": [],
						"body": {
							"mode": "raw",
							"raw": "{\n    \"username\": \"dummy\",\n    \"password\": \"123\"\n}",
							"options": {
								"raw": {
									"language": "json"
								}
							}
						},
						"url": {
							"raw": "localhost:8080/authenticate",
							"host": [
								"localhost"
							],
							"port": "8080",
							"path": [
								"authenticate"
							]
						}
					},
					"response": []
				}
			]
		}
	]
}